Experiment Design
…
  if(all(req_ratios %in% acceptable_pairs$closest_ratio)){
    meet_all_conditions <- TRUE
  } else {
    meet_all_conditions <- FALSE
  }
  
  return(list(pairs = acceptable_pairs, valid = meet_all_conditions))
}

check_conditions(data_unrestricted_var1)

$pairs
# A tibble: 365 × 11
   x.pair1 y.pair1 z.pair1 dummy x.pair2 y.pair2 z.pair2 distance ratio
     <int>   <int>   <dbl> <dbl>   <int>   <int>   <dbl>    <int> <dbl>
 1       1       1   0.306     1       1       4   0.628        3 0.487
 2       1       1   0.306     1       1       5   0.604        4 0.506
 3       1       1   0.306     1       2       3   0.759        3 0.403
 4       1       1   0.306     1       2       4   0.781        4 0.391
 5       1       1   0.306     1       3       3   0.780        4 0.392
 6       1       2   0.530     1       2       5   0.774        4 0.685
 7       1       2   0.530     1       3       1   0.586        3 0.905
 8       1       2   0.530     1       3       4   0.898        4 0.590
 9       1       2   0.530     1       4       1   0.659        4 0.805
10       1       2   0.530     1       4       3   0.873        4 0.608
# ℹ 355 more rows
# ℹ 2 more variables: closest_ratio <dbl>, dist_to_closest <dbl>
…
