Better Model
…
This is actually somewhat informative. Perhaps we can see if responses per individual are somewhat normal with a mean of zero?

The only issue that I can see with testing normality with mean zero is that we observe a difference between the 2D and 3D charts. Also, we definitely observe a distribution of means around 0, so perhaps it seems like people respond with a consistent bias.

# This is annoying me that I have not yet saved these reoccurring values
res <- res %>% 
  mutate(error = user_slider - true_ratio*100,
         true_size = ifelse(z == 50, 50*true_ratio, 50),
         true_diff = z - true_size)
res

# A tibble: 5,800 × 23
   set   media pair_id user_set_order user_trial_order user_id       user_larger
   <chr> <chr>   <int>          <int>            <int> <chr>         <chr>      
 1 set1  2dd         2              1                1 86b67875e21e… R          
 2 set1  2dd         1              1                2 86b67875e21e… d          
 3 set1  2dd         4              1                3 86b67875e21e… Both value…
 4 set1  2dd         8              1                4 86b67875e21e… Both value…
 5 set2  3dd         2              2                5 86b67875e21e… r          
 6 set2  3dd         1              2                6 86b67875e21e… d          
 7 set2  3dd         4              2                7 86b67875e21e… h          
 8 set2  3dd         8              2                8 86b67875e21e… Y          
 9 set1  3dd         8              3                9 86b67875e21e… y          
10 set1  3dd         2              3               10 86b67875e21e… R          
# ℹ 5,790 more rows
# ℹ 16 more variables: user_slider <dbl>, slider_start <dbl>,
#   slider_clicks <dbl>, clicks_3dd <dbl>, start_time <dbl>, end_time <dbl>,
#   user_seq <dbl>, block <int>, system_time <dbl>, z <dbl>, true_ratio <dbl>,
#   true_larger <chr>, y_cm <dbl>, error <dbl>, true_size <dbl>,
#   true_diff <dbl>
